{"array":[72
,417952
,786128
,100340
,382102
,143986
,862035
,144021
,820849
,319227
,75631
,121743
,824202
,248406
,3092
,871920
,154846
,133450
,273755
,734510
,450459
,227256
,506541
,860380
,834281
,598656
,885170
,958599
,20451
,822877
,465724
,779856
,373367
,3156
,268213
,484181
,554200
,404779
,583939
,54415
,352942
,600778
,769799
,936860
,635333
,789444
,511664
,187809
,163733
,292269
,101521
,883643
,116534
,663673
,39992
,33748
,995101
,149247
,69706
,248355
,683097
,55762
,400555
,227614
,587671
,255331
,344671
,253112
,329892
,687710
,898687
,445643
,241770
,812516
,384934
,224829
,445578
,918154
,410486
,764054
,730612
,719202
,672101
,130523
,195984
,557065
,905008
,820038
,984061
,862090
,904898
,873424
,791783
,483595
,481992
,381334
,870697
,219204
,589295
,462478
,58464
,464288
,66094
,768003
,999319
,643406
,249021
,995743
,1572
,522660
,419832
,361707
,717170
,520581
,236880
,219266
,610356
,962715
,790140
,77197
,801656
,355837
,744347
,554106
,333381
,342030
,726519
,935944
,47772
,302403
,986083
,688427
,672167
,950296
,103279
,237803
,299769
,449727
,331510
,97233
,464276
,158774
,809937
,281684
,981340
,412783
,483521
,430726
,137847
,791631
,752086
,865726
,348685
,456077
,493922
,560374
,679995
,396919
,583236
,292741
,408554
,529904
,18328
,306847
,669374
,34910
,274807
,759874
,657669
,516354
,438431
,684831
,823789
,620625
,57769
,795661
,609317
,583304
,663434
,276783
,773630
,733072
,520455
,755620
,503833
,495448
,511126
,93830
,517224
,618746
,749633
,744625
,226958
,276867
,208520
,11146
,300996
,386010
,643891
,358931
,514833
,792709
,344650
,546319
,370703
,754025
,737362
,235569
,286330
,723547
,685931
,148548
,658337
,945869
,696816
,987784
,25265
,131141
,760187
,563803
,353154
,11506
,337270
,843363
,186464
,174166
,906485
,3894
,846641
,433338
,950197
,779755
,961942
,183338
,511619
,822201
,336361
,452403
,736605
,557542
,132408
,199714
,466326
,890081
,60556
,21595
,71916
,521466
,203614
,1031
,279161
,212904
,922926
,664707
,796987
,175617
,660201
,490615
,973269
,241062
,765792
,52153
,515767
,69513
,368309
,738711
,720321
,525265
,503297
,558759
,773434
,773914
,869877
,554985
,594769
,687928
,891423
,305480
,174498
,885201
,884718
,123018
,881645
,93147
,330564
,904372
,257172
,206520
,79984
,549502
,427832
,270177
,225432
,196559
,300681
,897171
,61653
,453187
,442839
,174178
,993642
,253431
,957129
,289426
,250651
,99347
,242737
,179007
,500756
,294691
,246738
,110283
,391918
,103056
,515671
,971466
,151760
,749558
,212927
,419294
,874228
,587896
,86572
,861355
,979404
,5765
,863081
,913569
,416545
,255257
,777860
,646112
,411229
,911019
,902034
,263592
,17348
,133025
,578574
,292341
,897208
,890921
,875318
,565325
,609459
,944616
,30721
,405440
,103261
,652917
,683569
,769511
,743823
,849522
,455837
,565302
,295157
,95627
,353540
,444073
,376663
,870260
,928252
,678853
,433541
,373643
,400866
,80931
,970655
,844331
,500346
,272689
,354507
,187843
,190136
,940290
,863470
,507402
,556072
,705336
,480338
,203114
,174826
,287128
,108294
,818046
,983874
,878499
,77981
,876920
,952560
,955838
,254869
,791636
,712459
,822960
,990622
,598038
,853321
,708340
,595115
,940557
,693726
,642020
,110155
,592162
,363585
,997565
,539276
,929768
,261689
,41270
,22459
,842939
,594015
,952668
,915684
,116288
,729123
,277646
,177319
,200500
,664152
,692490
,604281
,215482
,885784
,206873
,385778
,413080
,36059
,114962
,200556
,388322
,598966
,733668
,335990
,985999
,692149
,567275
,8689
,442611
,439328
,311318
,31780
,876463
,171526
,928368
,916233
,178644
,976964
,404525
,851738
,79222
,86592
,243405
,926580
,861365
,880167
,62277
,93164
,846377
,697815
,185879
,47431
,777184
,593510
,322389
,490930
,308057
,963436
,263781
,120608
,124984
,510887
,801069
,265295
,222614
,43059
,987367
,959289
,760168
,809723
,601276
,971660
,860595
,754718
,64037
,213617
,255060
,947519
,505469
,914008
,267531
,271697
,184520
,269789
,217951
,378327
,532028
,964502
,199415
,623966
,359494
,463522
,379742
,318578
,225010
,170505
,502457
,66647
,96120
,475372
,197041
,591999
,376826
,169467
,312832
,939146
,404976
,252952
,317664
,663204
,908904
,499045
,873109
,60630
,291654
,922000
,455399
,384462
,453388
,400967
,867188
,849138
,665696
,467717
,97936
,429299
,321466
,761470
,218214
,85704
,697581
,187546
,710832
,847179
,670274
,270698
,385283
,148813
,772826
,491365
,797515
,225800
,888963
,128194
,968455
,806471
,715078
,996780
,523203
,675919
,729523
,360591
,630251
,914922
,159104
,673733
,256551
,113103
,327007
,12524
,679244
,879138
,383761
,162781
,422673
,166755
,265997
,309694
,723428
,677143
,436787
,323450
,489295
,942897
,794086
,584275
,311188
,225763
,94046
,662156
,486060
,849632
,195116
,434738
,524519
,994822
,657958
,201737
,948845
,436530
,158014
,936325
,541173
,662314
,170427
,717653
,481380
,369939
,178126
,444321
,314170
,586260
,342881
,713334
,425206
,350762
,670171
,146161
,445851
,448027
,186234
,857607
,835669
,334730
,677665
,904654
,739880
,668953
,568086
,958534
,428589
,786986
,412271
,872477
,710914
,388451
,432129
,438119
,107185
,759516
,804392
,712885
,183562
,317928
,113769
,492770
,741421
,360378
,757887
,147517
,624704
,272085
,322046
,466974
,720655
,663097
,607104
,537408
,882625
,428052
,291367
,640603
,358050
,250937
,636998
,879275
,6255
,337341
,811534
,841877
,249330
,447122
,556681
,272303
,558608
,944228
,180500
,861423
,817692
,66975
,112854
,844920
,792561
,917716
,97703
,157928
,403193
,727836
,639318
,344360
,31195
,12126
,286231
,937716
,369714
,689110
,649791
,657921
,492754
,728947
,828026
,773035
,414315
,482337
,620897
,596803
,425381
,771683
,231074
,383435
,481451
,978795
,657036
,643568
,466230
,823129
,957831
,362864
,568756
,637292
,967175
,671897
,530771
,402396
,282463
,61252
,197673
,559872
,40627
,457231
,513854
,672578
,962618
,928241
,13325
,880607
,379319
,924652
,923934
,424860
,902009
,605053
,505878
,992112
,690396
,22494
,965726
,120370
,182343
,918113
,505326
,848785
,379864
,573436
,127187
,741979
,894578
,439231
,53289
,871832
,244792
,739070
,867066
,696965
,701516
,824881
,484100
,776966
,967581
,917410
,927662
,2503
,869460
,52806
,254063
,257556
,310197
,5418
,562944
,543415
,398656
,691210
,759841
,716012
,725200
,459683
,186318
,681578
,480173
,714866
,437368
,77125
,996054
,258482
,862788
,184978
,989882
,992185
,122203
,525984
,534298
,295654
,294146
,724275
,810809
,881791
,562713
,979010
,465215
,51117
,811612
,903844
,945309
,961766
,186325
,307290
,281659
,515455
,854451
,941203
,554767
,64213
,636518
,478718
,158986
,244793
,8852
,943086
,460451
,695065
,850899
,539542
,89939
,703158
,568965
,757793
,887007
,876955
,740815
,467104
,831612
,481279
,787027
,660739
,154486
,915009
,117129
,255301
,339597
,946327
,885397
,835980
,755278
,463502
,632079
,617600
,639199
,841106
,577439
,96899
,951561
,598742
,10186
,416258
,969313
,94570
,11470
,662666
,720167
,645565
,289334
,572011
,950753
,509295
,47545
,77114
,999796
,493767
,970169
,85031
,850835
,98904
,345040
,967599
,347808
,477332
,710532
,628691
,147600
,832726
,277020
,375863
,943150
,751525
,485172
,264069
,911149
,291212
,683416
,267908
,487220
,104133
,759186
,564803
,729210
,620347
,606509
,70897
,789575
,687114
,987535
,55842
,709610
,242771
,574854
,404045
,723721
,714938
,543347
,17085
,787072
,983908
,157401
,92731
,283724
,783171
,411937
,933977
,301438
,824493
,718531
,832379
,609954
,756043
,709837
,384945
,776097
,465262
,757210
,390790
,997108
,704982
,302155
,757197
,222954
,850627
,952266
,587184
,2934
,51847
,471123
,699319
,975339
,313401
,373958
,922360
,326929
,240378
,415902
,638033
,124442
,218826
,866659
,844392
,359288
,316431
,73707
,325356
,584821
,326895
,561104
,779142
,704987
,444660
,135390
,617195
,920333
,72536
,145831
,356421
,825408
,914812
,407734
,107817
,845202
,147654
,891715
,945349
,23572
,912852
,644298
,755996
,571593
,196816
,774161
,231478
,952912
,818220
,146850
,766938
,342516
,139507
,143971
,204536
,464634
,46756
,947601
,908703
,678989
,135148
,715165
,648833
,369441
,30307
,119547
,105162
,382168
,244316
,166368
,429953
,976101
,942987
,770427
,446354
,539077
,212187
,214399
,843233
,535958
,931140
,234032
,367346
,938975
,830339
,304119
,822023
,310338
,645692
,544255
,846362
,179637
,267499
,453878
,706927
,456740
,641588
,413756
,794815
,308561
,925653
,130877
,769214
,697023
,125506
,337539
,553144
,203180
,120502
,504292
,282259
,633250
,213511
,166169
,509191
,410601
,572717
,432826
,315611
,617036
,348671
,240789
,676709
,815781
,266488
,739745
,209771
,626776
,926624
,411691
,763810
,558436
,23504
,555700
,88873
,943208
,155908
,378242
,152435
,613814
,715724
,141830
,240974
,933300
,443235
,865078
,161750
,614646
,824924
,346191
,856502
,313247
,99072
,858461
,853054
,113168
,822283
,563289
,447065
,673211
,298404
,441189
,794479
,392869
,431758
,937641
,768068
,563409
,240120
,49314
,797775
,790032
,651588
,812671
,257592
,207224
,821029
,670681
,555953
,638311
,796227
,814421
,710631
,998103
,815743
,570994
,44801
,889895
,276670
,191970
,936360
,766062
,585869
,691868
,259574
,133950
,435970
,576203
,861814
,746750
,181392
,361121
,53207
,488718
,354053
,824169
,211387
,596517
,155630
,1
,0
,312076
,799961
,688896
,570849
,644925
,453971
,647126
,773631
,281073
,481589
,175667
,138356
,599748
,540799
,63098
,282368
,746783
,914710
,61720
,927682
,616535
,564956
,717327
,949714
,331410
,60452
,53100
,793783
,827352
,54692
,783424
,363972
,807137
,107599
,963872
,650688
,804831
,10617
,149746
,729678
,318071
,468217
,704962
,537407
,421355
,764166
,877952
,177388
,824610
,74608
,308968
,698866
,118855
,67971
,291794
,947738
,526340
,908692
,667251
,901743
,821555
,756871
,916508
,138378
,683578
,288665
,667391
,876001
,904974
,438135
,167864
,712770
,60850
,164365
,910746
,760430
,565885
,516287
,701806
,749886
,962713
,442106
,810555
,529308
,490919
,839292
,541432
,477101
,50728
,646827
,599062
,433073
,865762
,202650
,17788
,511936
,596930
,947312
,574143
,740266
,749942
,782057
,738755
,206111
,180729
,594128
,858571
,520082
,609453
,128734
,177787
,461433
,44075
,620233
,728099
,431564
,660980
,300
,486236
,899634
,669816
,727165
,620801
,674228
,630014
,950941
,228770
,328444
,260841
,537986
,314332
,252291
,274367
,662232
,532970
,216356
,617371
,612439
,554956
,502330
,833442
,668491
,858859
,293432
,479665
,931545
,772340
,310352
,199728
,3637
,430730
,811955
,424020
,366531
,266463
,753
,521845
,763437
,118548
,736088
,849689
,459419
,234531
,884305
,653675
,419109
,410906
,345163
,83295
,530912
,673516
,841956
,431628
,366651
,590487
,462821
,934864
,69549
,62881
,536307
,319684
,375056
,314640
,682173
,501218
,727900
,847321
,294214
,500850
,250614
,504019
,844852
,953139
,436689
,726421
,16600
,383926
,421207
,38395
,318665
,7964
,141393
,748809
,677133
,740245
,495493
,327451
,157064
,838642
,745914
,200988
,174957
,259914
,773667
,137772
,973391
,298451
,290518
,76131
,86523
,650118
,324379
,29115
,195975
,799809
,66398
,586814
,147296
,983775
,740252
,194412
,367041
,393359
,337947
,308272
,645284
,125689
,677054
,476254
,656399
,769611
,330458
,689750
,760370
,531772
,228793
,497533
,982200
,952677
,765396
,146078
,31491
,438149
,963713
,148582
,467983
,460426
,686516
,20615
,653543
,535980
,197024
,976283
,704536
,591575
,869178
,780359
,146889
,720827
,660859
,863006
,316625
,16342
,803732
,366635
,564656
,100348
,620453
,352284
,205282
,96379
,59377
,349814
,612577
,74957
,906428
,673112
,896515
,839996
,315553
,305806
,982181
,797839
,44078
,53521
,320413
,978799
,169924
,177571
,940179
,639360
,155444
,328194
,397879
,778614
,148734
,46010
,142652
,496177
,254009
,72476
,526216
,394246
,302766
,641346
,520170
,797849
,660754
,696563
,337179
,642530
,639275
,689782
,742875
,153153
,144368
,901633
,776886
,898018
,28929
,247517
,543317
,461736
,563205
,436332
,693816
,706550
,416934
,66161
,206849
,858600
,897953
,699721
,797543
,466656
,431465
,962156
,769960
,426140
,260251
,152640
,311035
,471724
,95598
,394635
,497242
,890023
,628638
,769755
,55151
,970089
,414632
,46770
,877503
,307868
,644336
,880636
,656001
,861759
,131158
,252132
,138317
,303088
,860708
,137176
,33941
,518979
,824908
,222513
,323159
,634287
,733588
,719536
,44108
,618461
,40323
,854358
,193961
,143497
,165611
,993171
,723620
,140458
,858531
,306528
,814783
,810438
,525729
,390976
,957006
,72016
,859368
,331988
,183455
,90774
,494424
,715133
,157496
,434709
,624845
,168406
,386496
,14104
,529628
,220987
,629250
,345221
,495882
,941117
,772836
,952659
,635254
,469932
,911744
,457255
,991173
,38901
,326869
,655369
,508276
,35729
,679930
,412973
,853428
,686595
,675869
,111436
,930751
,319773
,30021
,901603
,839438
,509879
,286920
,579362
,137405
,693365
,356656
,909332
,875779
,43397
,933128
,365682
,858017
,445282
,198858
,939162
,561734
,866786
,683235
,221671
,91673
,41374
,570463
,465371
,638334
,748813
,731226
,929442
,988982
,607881
,902013
,947716
,637061
,892171
,785263
,439953
,264943
,795020
,385412
,310308
,982307
,442866
,417256
,429360
,802212
,997223
,232622
,13325
,346056
,512658
,644095
,780300
,370468
,147265
,621398
,606457
,377888
,834779
,833554
,344902
,630922
,747028
,54866
,616645
,459180
,139093
,255106
,651757
,643294
,461057
,164533
,20765
,815947
,483519
,815417
,414340
,226199
,600029
,637460
,735736
,70592
,185383
,499866
,819541
,625979
,627643
,321185
,969238
,196866
,579495
,285916
,902607
,480320
,529800
,508442
,660346
,668458
,16867
,158467
,71086
,973688
,584377
,313609
,6323
,720002
,158095
,25394
,551697
,117377
,74137
,730014
,313829
,442248
,49538
,285659
,875498
,251197
,307655
,108962
,951202
,794704
,73847
,23794
,963828
,786846
,771058
,473722
,981749
,977250
,586477
,6664
,565234
,822055
,319455
,220019
,565438
,230046
,763597
,327049
,617903
,965816
,757169
,77127
,567465
,119120
,586956
,432443
,439541
,610748
,246320
,549788
,757457
,579605
,137249
,182936
,68942
,158961
,856707
,219763
,87740
,263500
,555067
,618834
,805454
,458874
,449427
,907115
,152087
,372148
,978183
,508738
,48293
,519164
,11989
,467684
,698896
,242476
,680370
,672049
,980209
,239622
,205890
,429368
,78298
,487058
,586154
,853516
,304699
,281392
,910914
,213357
,748038
,924389
,371544
,644845
,821567
,162122
,802491
,551642
,398123
,209145
,896383
,702260
,92368
,224513
,416353
,401229
,245669
,765258
,108177
,566226
,855333
,636422
,602636
,574772
,508519
,156082
,280405
,268423
,136464
,146425
,583708
,160050
,559576
,48126
,728430
,931292
,944231
,444056
,187505
,916939
,904426
,86255
,350760
,795880
,188676
,90768
,930309
,602422
,543495
,926846
,778789
,440396
,184611
,482144
,338783
,78092
,399717
,691591
,10476
,891954
,486681
,680829
,399809
,157079
,388608
,287325
,91212
,287997
,81300
,283995
,842861
,861993
,249930
,59568
,102590
,902137
,728963
,638965
,431018
,14685
,868366
,223523
,955250
,288313
,478561
,418981
,670744
,192424
,474774
,924167
,312306
,930146
,430340
,140515
,390660
,628806
,14689
,828048
,747372
,864750
,859036
,3078
,310374
,887564
,275247
,692523
,389775
,345164
,13540
,486189
,196433
,667232
,60305
,438128
,474701
,771642
,173232
,846153
,700433
,96653
,655904
,657906
,758220
,117280
,890056
,704041
,380305
,874871
,233309
,613518
,960574
,27181
,848809
,700236
,839436
,320740
,989329
,295519
,440657
,352452
,109696
,920631
,613601
,32981
,457077
,621657
,380393
,231318
,595624
,679009
,642846
,915592
,617731
,193437
,495633
,347094
,40086
,350223
,799326
,19118
,838022
,577452
,189321
,254751
,45635
,570889
,510578
,56687
,676629
,781319
,470843
,527755
,512230
,521942
,663622
,372052
,206330
,594130
,768357
,559332
,975605
,591976
,730653
,682324
,564992
,674700
,784565
,44211
,336457
,493767
,98955
,284383
,712989
,569408
,639655
,632949
,8058
,335724
,955309
,994193
,958092
,32203
,742520
,633861
,394814
,737138
,160717
,605994
,852517
,874845
,978150
,26059
,57601
,713725
,306643
,845533
,920308
,628587
,639049
,11505
,95285
,229280
,828647
,804823
,411857
,531713
,936611
,179632
,891816
,191378
,398317
,359796
,89325
,337686
,234725
,611355
,236860
,28476
,971483
,617074
,14118
,566821
,679327
,133938
,245623
,899733
,21555
,144553
,387151
,385335
,53416
,92905
,779465
,944302
,540824
,411822
,359245
,362100
,815372
,477932
,774485
,572462
,186632
,691717
,985367
,658310
,693950
,440469
,881029
,974386
,422465
,708672
,571833
,623880
,346831
,601434
,861416
,792946
,337592
,922111
,301402
,301876
,759245
,132469
,85635
,796400
,962968
,887384
,219709
,404907
,614464
,171776
,268358
,483617
,814251
,197972
,444630
,668890
,104598
,948722
,296016
,500547
,494924
,66414
,180977
,433875
,487261
,748295
,244969
,741784
,674773
,473852
,609945
,85797
,338717
,671292
,119767
,351927
,499635
,441426
,498297
,940661
,827599
,21227
,240621
,782933
,810820
,827862
,96605
,920182
,490351
,912415
,976213
,959191
,721957
,815793
,414696
,80412
,496424
,766752
,428144
,411907
,52686
,493276
,43031
,222103
,501768
,61869
,915897
,507397
,947079
,128460
,920296
,3607
,863881
,313492
,765049
,842635
,976162
,953150
,179231
,401201
,380481
,943585
,503576
,260222
,758867
,454616
,742781
,451639
,644338
,946277
,137468
,60217
,785792
,902117
,925304
,190638
,799831
,275754
,338081
,190428
,460847
,151900
,464697
,922628
,852655
,994329
,961342
,242991
,406696
,237633
,943660
,569297
,810208
,109998
,341534
,559169
,788452
,641689
,136791
,568970
,236285
,958123
,21137
,626101
,641839
,208058
,40611
,966970
,552941
,924346
,120854
,817427
,332950
,848756
,925592
,966620
,701630
,337639
,509977
,675671
,738545
,635826
,821917
,169773
,42243
,476171
,828983
,255006
,148567
,770261
,398890
,585985
,986254
,615183
,946279
,38185
,261976
,533789
,575357
,55428
,931626
,427632
,297925
,914945
,392326
,590786
,932287
,969130
,80939
,871247
,226836
,820982
,874620
,522142
,396508
,742639
,303963
,59969
,805388
,488538
,20134
,533329
,602794
,397079
,818062
,750371
,6159
,450532
,457185
,451388
,147414
,828392
,802940
,143993
,359901
,257228
,490674
,919771
,402687
,578821
,515280
,491720
,939087
,651345
,502771
,967648
,618844
,277861
,145627
,479936
,24770
,595862
,894546
,770873
,261789
,836068
,668664
,982903
,723465
,712855
,353589
,849841
,191725
,301638
,733134
,209764
,337875
,354371
,862965
,296515
,471779
,640347
,227733
,205286
,896514
,358727
,457665
,74444
,103557
,139897
,94387
,623259
,342310
,638412
,319566
,937628
,23057
,462306
,499177
,487910
,1
,0
,682140
,398447
,410044
,891166
,727859
,727346
,882598
,162207
,692815
,720883
,689245
,306745
,491651
,996535
,259065
,92653
,398267
,865412
,364150
,438958
,536943
,346243
,816313
,204472
,601278
,499377
,10300
,523967
,243693
,995456
,928834
,878509
,1638
,380788
,698200
,839525
,525871
,26055
,673991
,351790
,587197
,9261
,115435
,362186
,832683
,468940
,677858
,312806
,9388
,229992
,318404
,96353
,258448
,896891
,946279
,115712
,12000
,559067
,550261
,428234
,788399
,27308
,319360
,104723
,81617
,162043
,281315
,38030
,907426
,333300
,34759
,385090
,830035
,765106
,117545
,212243
,255716
,450238
,389395
,154523
,766125
,650530
,726799
,886894
,143744
,923349
,880749
,959931
,817938
,124941
,861100
,905213
,153138
,317814
,323379
,843886
,305865
,544746
,245431
,913934
,509884
,360023
,744610
,255455
,293382
,6345
,615314
,485998
,521411
,301037
,892144
,354419
,555963
,442309
,239869
,344353
,179419
,279724
,478029
,607416
,926159
,272141
,768371
,870900
,566101
,294751
,32020
,552365
,207566
,650143
,634869
,975715
,511973
,83557
,154671
,949307
,273486
,58740
,598007
,329596
,361963
,535708
,527296
,213724
,837863
,918215
,617966
,270253
,623193
,897963
,461017
,968513
,364577
,272308
,601339
,431880
,806463
,236157
,605606
,467529
,155639
,238854
,609163
,927967
,396169
,7783
,189301
,67834
,518049
,200312
,240249
,295630
,870123
,853124
,349375
,743825
,783196
,934104
,995217
,217347
,800582
,953078
,995838
,639373
,101666
,140368
,539843
,560592
,179233
,490051
,889176
,314525
,448976
,184713
,802961
,686702
,68829
,115646
,234515
,524679
,788335
,114993
,952876
,546582
,8436
,958970
,308738
,972666
,877505
,852133
,856543
,445721
,342041
,836656
,318346
,133473
,780155
,379706
,493365
,142502
,700497
,63191
,148003
,342396
,858882
,918308
,281358
,943142
,266026
,293138
,44076
,516602
,265404
,831029
,209377
,803641
,601141
,927119
,447184
,33720
,207404
,830623
,908938
,992219
,938492
,234158
,566784
,704978
,903065
,557459
,634628
,185282
,959491
,444238
,988396
,975467
,67642
,407835
,350027
,931607
,879405
,20572
,777363
,928818
,54655
,104042
,463411
,551634
,397674
,715198
,914635
,512418
,899442
,178365
,408945
,756246
,104031
,37143
,664572
,200450
,411868
,800956
,150577
,894433
,373163
,423322
,2846
,751295
,224908
,161954
,135523
,681763
,405831
,567339
,87179
,720318
,246768
,691666
,693136
,266275
,771031
,387187
,393587
,311956
,262058
,58528
,702169
,281881
,665580
,322085
,390763
,673940
,896230
,880745
,596521
,987794
,998292
,887035
,507758
,827917
,312718
,756206
,806907
,571278
,424735
,85199
,205231
,981208
,461439
,513190
,418356
,819591
,590721
,247583
,965799
,288310
,530575
,429605
,388538
,504266
,297766
,171484
,821707
,515317
,304296
,55487
,828580
,781137
,874464
,600986
,630717
,164848
,466142
,102094
,379361
,679927
,207550
,47516
,238558
,993915
,352294
,376926
,846519
,120236
,986569
,262275
,576302
,18827
,743404
,9761
,674955
,268078
,865368
,946236
,876224
,102609
,941884
,410279
,169547
,821914
,518017
,581639
,276836
,403221
,148007
,466113
,595382
,550054
,187948
,963487
,177257
,414937
,621697
,246258
,718859
,849058
,866920
,339758
,412941
,74326
,782576
,674906
,456816
,317200
,537149
,529517
,940240
,20002
,132
,634649
,764065
,164452
,444129
,560747
,494872
,891162
,528320
,666150
,289514
,653629
,146808
,971786
,812702
,26870
,282980
,612642
,58542
,410720
,806764
,189166
,977340
,704043
,425722
,687747
,346847
,968457
,428282
,737939
,849908
,523433
,421103
,71416
,384787
,535917
,598745
,311246
,954991
,440140
,806202
,668334
,435411
,987790
,167733
,73440
,687068
,357386
,912223
,424046
,313659
,134349
,23597
,350520
,583054
,443117
,205676
,704039
,440090
,527958
,856667
,247295
,396194
,485192
,849754
,604399
,21590
,672956
,195329
,246604
,723786
,503698
,599186
,595760
,449702
,447618
,136373
,317598
,300735
,251072
,762321
,921145
,271223
,516841
,20722
,784268
,980463
,217060
,692783
,18390
,596857
,902238
,544673
,277935
,572974
,329150
,553052
,436098
,394209
,795631
,596133
,397606
,137128
,719248
,402343
,958285
,660086
,989696
,7038
,295634
,620896
,594155
,702627
,388142
,311772
,735791
,194455
,734285
,371702
,906609
,283864
,523226
,771134
,512690
,229422
,346121
,753207
,745054
,980928
,998526
,444997
,514404
,877589
,27038
,309639
,233893
,838965
,117178
,383816
,404172
,98527
,78730
,152827
,753697
,25012
,480345
,544465
,3579
,64964
,222662
,405456
,293907
,645957
,334039
,143643
,246575
,53240
,543499
,956259
,157842
,121198
,625331
,520121
,293267
,347028
,678291
,2555
,314812
,836676
,728057
,848755
,324193
,595568
,49506
,842838
,760957
,846813
,19937
,45971
,572757
,760544
,193505
,100037
,453159
,313065
,4041
,817390
,234977
,103427
,667989
,745820
,386804
,388768
,936918
,540364
,829261
,655601
,223195
,149302
,692035
,142662
,914616
,472273
,252771
,393909
,402785
,353286
,215622
,449716
,823648
,663228
,267007
,793672
,243893
,219945
,790336
,790974
,881551
,465320
,10288
,957239
,541907
,682990
,811508
,171964
,806387
,790177
,329213
,397961
,873877
,193353
,371692
,109324
,23280
,715131
,865068
,802015
,56714
,311820
,524262
,339530
,181078
,178802
,868823
,725907
,720986
,13845
,822453
,584584
,891833
,663967
,995054
,176247
,915285
,901920
,776118
,607005
,257271
,181646
,462312
,169707
,111808
,925052
,61779
,547194
,724928
,483155
,646801
,48537
,491599
,273841
,434767
,123322
,330402
,369248
,311326
,433806
,80646
,909574
,160221
,747220
,689112
,878536
,184604
,294963
,72658
,647368
,713444
,840109
,136545
,667551
,146328
,871533
,97520
,221884
,326951
,217875
,614967
,794264
,149548
,121490
,178579
,102868
,417796
,901309
,690341
,695587
,100472
,816442
,704782
,793555
,415741
,675708
,337893
,687985
,445662
,508725
,941656
,363876
,621091
,408397
,559443
,81978
,850748
,139976
,383256
,872960
,327741
,647230
,319219
,274752
,918367
,590008
,626915
,911950
,522894
,297426
,810740
,377625
,116648
,203653
,320152
,38591
,61418
,967185
,603204
,338728
,329013
,316733
,590324
,704040
,879538
,730060
,94628
,930275
,594892
,654976
,165758
,164816
,557546
,160371
,967660
,723029
,808363
,461362
,144432
,560128
,119560
,407155
,878133
,754120
,776670
,909961
,680534
,996108
,344128
,434360
,359548
,208672
,348207
,681040
,489772
,259237
,853154
,93159
,233790
,50971
,274403
,831375
,425071
,928281
,29581
,717501
,965620
,252025
,60593
,655022
,741801
,140881
,213896
,827813
,732887
,353021
,780955
,16771
,813516
,730223
,630800
,6717
,741458
,385799
,955797
,160662
,790240
,224342
,879439
,390725
,89199
,675242
,499261
,429474
,719316
,144310
,724290
,932238
,333214
,55685
,510844
,502083
,447148
,1392
,737627
,362121
,533272
,499957
,230207
,397375
,78184
,82088
,35231
,358687
,430646
,456685
,128374
,724288
,489033
,427529
,34896
,93475
,565912
,615722
,37971
,611494
,496860
,429015
,408520
,340716
,60185
,464488
,435547
,844813
,152390
,270419
,227244
,253709
,196798
,900607
,189052
,833189
,316693
,650894
,456100
,505943
,59869
,25093
,195459
,340368
,963944
,450648
,347711
,373032
,170988
,281075
,442202
,680085
,346352
,618386
,258279
,182535
,825149
,961507
,274076
,317935
,796732
,845619
,715414
,133795
,947649
,447464
,807585
,24963
,723993
,716407
,394031
,830976
,317158
,991755
,435829
,280852
,607138
,668559
,643539
,421939
,244268
,919187
,759502
,40219
,468713
,376218
,956013
,565791
,254330
,53429
,717691
,89710
,62986
,271480
,302192
,129995
,749501
,588525
,424536
,954268
,959000
,465568
,778794
,655444
,60487
,778905
,518573
,189463
,649028
,48338
,256836
,442214
,251982
,101650
,368749
,7213
,798942
,667250
,602250
,397544
,954406
,217167
,503887
,70667
,386730
,334705
,645447
,332380
,292430
,987629
,312370
,664004
,372760
,197966
,850035
,988067
,753510
,525325
,120835
,57592
,926517
,647507
,490052
,176666
,539546
,135799
,766082
,612717
,171266
,950229
,290685
,29945
,393986
,915704
,630709
,182684
,530735
,718106
,686270
,355715
,499322
,955646
,133663
,932527
,768856
,338463
,417852
,366910
,710714
,79049
,86168
,774742
,538969
,431910
,843133
,318653
,580235
,988907
,346166
,974634
,898111
,306619
,450359
,644661
,450909
,243170
,124944
,507551
,904599
,664418
,479349
,293069
,347433
,607187
,877129
,570460
,291234
,498137
,931269
,924838
,50739
,88409
,950654
,729211
,264637
,799255
,898998
,398430
,145369
,905988
,831462
,19185
,754196
,774333
,594712
,567853
,60475
,40189
,306803
,473083
,92884
,113674
,411184
,202283
,160993
,533705
,762108
,176991
,843157
,523772
,742684
,199358
,506195
,277770
,830529
,6439
,155185
,671265
,630049
,188825
,327826
,263049
,604264
,130320
,727700
,929847
,766518
,407338
,960434
,368769
,312380
,981799
,371971
,109975
,366093
,288116
,678619
,984591
,611034
,544257
,291685
,511648
,330362
,860517
,250817
,767790
,683699
,515051
,307221
,906005
,854254
,414547
,158433
,845948
,14083
,157979
,164151
,185497
,373211
,649504
,248937
,528851
,803437
,264365
,837708
,528263
,279930
,751607
,566987
,541013
,846155
,287355
,596491
,329956
,319460
,306718
,211473
,991000
,344380
,803359
,245140
,91814
,878041
,164188
,875133
,450470
,812410
,211724
,983817
,251252
,514967
,108292
,312113
,589430
,124788
,401155
,59615
,936541
,501805
,177922
,642250
,1
,0
,454563
,861462
,126315
,748399
,641975
,116321
,472661
,796865
,743088
,568580
,989011
,394258
,438755
,817094
,103232
,159563
,335042
,718687
,619124
,517890
,947174
,735565
,298606
,787948
,849952
,470692
,153483
,389153
,300710
,785308
,937214
,681823
,580292
,762028
,512530
,650184
,355904
,871235
,974978
,316130
,440110
,462315
,155457
,824405
,992330
,949297
,881671
,711506
,94561
,242207
,666861
,378318
,985287
,528691
,210852
,473014
,100152
,852467
,380140
,106514
,720950
,281273
,762497
,676678
,505698
,622195
,840318
,682548
,319414
,426734
,628369
,140354
,746636
,860961
,332905
,760109
,79583
,670176
,471910
,718705
,628937
,235636
,54274
,394931
,421108
,269452
,993624
,680699
,478417
,293235
,114695
,387495
,5323
,981314
,941641
,763949
,89032
,532969
,927128
,798336
,448152
,581868
,567326
,861951
,94701
,971983
,72793
,929988
,172064
,353801
,717947
,30971
,346912
,21113
,580336
,854113
,570462
,2775
,361393
,202921
,758317
,205845
,377941
,195964
,851818
,734403
,75483
,747008
,218919
,547073
,803622
,992811
,684720
,379393
,296131
,893337
,162747
,966413
,181070
,184641
,82293
,393900
,205843
,926885
,18822
,519849
,653415
,663930
,406274
,189307
,73005
,274262
,614545
,198758
,153651
,49711
,975128
,332973
,824164
,837308
,165136
,691695
,894405
,641301
,81949
,585025
,680346
,257240
,259399
,299640
,941245
,12941
,185011
,665633
,454119
,910837
,288986
,253608
,695420
,408470
,151970
,596107
,630871
,617726
,981735
,956454
,601962
,533468
,67429
,381639
,634996
,393682
,771913
,419521
,296674
,668029
,471413
,899496
,446363
,703549
,760660
,943982
,962777
,88144
,212289
,80548
,775056
,622568
,967402
,484284
,2484
,248556
,921883
,654060
,338572
,224468
,326336
,246739
,769770
,69773
,370475
,50901
,317452
,76398
,555250
,613175
,141297
,257369
,469183
,764572
,608786
,33607
,726407
,664227
,929437
,541970
,35294
,597979
,196333
,906536
,430930
,464539
,265776
,328545
,893206
,47822
,402878
,842274
,229644
,742181
,461719
,691771
,146221
,126930
,242988
,904778
,774055
,815012
,98434
,766626
,358873
,558621
,876455
,846242
,199422
,670328
,703164
,696827
,335798
,865540
,168170
,378825
,537076
,524048
,78138
,762744
,994966
,506211
,630433
,889152
,5705
,880547
,113912
,436497
,972724
,39997
,605370
,473163
,332763
,12784
,184319
,2194
,578449
,211161
,6821
,873062
,787949
,321162
,205876
,44615
,1168
,986328
,629295
,776646
,518791
,780894
,244428
,716317
,300534
,522771
,53371
,106725
,860830
,231844
,217642
,599759
,654148
,327230
,756940
,146832
,229856
,141905
,884808
,791602
,489252
,43896
,166727
,940408
,434946
,245102
,837015
,570503
,420740
,216636
,467225
,770002
,253563
,586638
,758882
,884354
,637575
,383083
,677838
,757229
,26595
,594887
,477469
,151882
,818849
,13030
,790304
,395114
,327478
,459825
,23979
,818421
,362919
,357186
,318779
,571066
,57330
,444750
,723704
,924056
,525892
,276158
,703236
,936419
,518313
,467384
,259030
,770925
,806295
,106149
,589507
,597342
,848823
,451078
,320844
,167383
,142565
,698841
,766309
,302410
,989056
,133460
,996737
,129020
,749649
,422157
,900346
,662354
,613648
,817077
,934121
,748675
,23156
,290
,231735
,698067
,669406
,516468
,686761
,354678
,700062
,293006
,97660
,734227
,191241
,946800
,809020
,930341
,847535
,705470
,278547
,147155
,206913
,671084
,625622
,503300
,900304
,798141
,643175
,653154
,938713
,466804
,300228
,26123
,168277
,570954
,326074
,712588
,211008
,238393
,355868
,149431
,135781
,413649
,911061
,668697
,582192
,510641
,567498
,214517
,229384
,984874
,732435
,151689
,224994
,125745
,768717
,924693
,856211
,937681
,454010
,682578
,174555
,862679
,231348
,555861
,70188
,768674
,458352
,299583
,936036
,690188
,442258
,974831
,282335
,570511
,684452
,821604
,102870
,445484
,119443
,654942
,894189
,670394
,244183
,140255
,650092
,327162
,962428
,148823
,951818
,567076
,977311
,535094
,340087
,35403
,280685
,813675
,413344
,24605
,259479
,430451
,741451
,416682
,999246
,128642
,60031
,808452
,697894
,894271
,812505
,450880
,904631
,237881
,992521
,705254
,653554
,977741
,559995
,303365
,340217
,626130
,9754
,240497
,37818
,559854
,996822
,37316
,632966
,265927
,146080
,607468
,607149
,348471
,376223
,422690
,591787
,969771
,855682
,626866
,286068
,865230
,967452
,678562
,583416
,627566
,884941
,242245
,485083
,394055
,617102
,312765
,292470
,451487
,791141
,809024
,538121
,780111
,186154
,899989
,703169
,196169
,831795
,351889
,726375
,588719
,592633
,304518
,649347
,831061
,363098
,784161
,517569
,479717
,73988
,54263
,53318
,152476
,891736
,794208
,314970
,303735
,663302
,560825
,334098
,775633
,967021
,233014
,506296
,55335
,455192
,8212
,910167
,632239
,689192
,239211
,154164
,190694
,988100
,428417
,237648
,291142
,69820
,905919
,109353
,363519
,856918
,531174
,359672
,735465
,789940
,502207
,925660
,357695
,172819
,776874
,447689
,773819
,95365
,818976
,185055
,353769
,811413
,901649
,140260
,916280
,885253
,559675
,197005
,943655
,574379
,171727
,292375
,123855
,776978
,867583
,254865
,662405
,719291
,174999
,605011
,516395
,797115
,469960
,782737
,711670
,765905
,655190
,16818
,801569
,873603
,561038
,85602
,921316
,941766
,879100
,807558
,854413
,653882
,150437
,344697
,464644
,29865
,119145
,877248
,764774
,259956
,902334
,555858
,5542
,805505
,369317
,39162
,460337
,943540
,983225
,46309
,947370
,124286
,645866
,323184
,351475
,584180
,757199
,70135
,632887
,865029
,879434
,329339
,231319
,886622
,540788
,473377
,838212
,179227
,454592
,50477
,643205
,379047
,137273
,210955
,139340
,642938
,488539
,533387
,954311
,361278
,807743
,150550
,807362
,420802
,986287
,581126
,945421
,339794
,719554
,94198
,246214
,292056
,442888
,266786
,637956
,762486
,583121
,21285
,212357
,553330
,427261
,554758
,793658
,110269
,319891
,506586
,987425
,353210
,800008
,360629
,352705
,41769
,967443
,341245
,664204
,510482
,537758
,147685
,808158
,678069
,381913
,674747
,976440
,754461
,841414
,13203
,381617
,594888
,788372
,199572
,529603
,606359
,286848
,91825
,989324
,67134
,863805
,49922
,447587
,969584
,810104
,832804
,338008
,925756
,229298
,218199
,432528
,762047
,897515
,908972
,30913
,901635
,319949
,205178
,695661
,873332
,522528
,167714
,49359
,205810
,863866
,529617
,22528
,182072
,271322
,589485
,819010
,51107
,801107
,628423
,450790
,719907
,256983
,515715
,556227
,943365
,287498
,355931
,928156
,201838
,103517
,166468
,2704
,85216
,282872
,831839
,768498
,330780
,910148
,452975
,531594
,670781
,53449
,135972
,996749
,969178
,310206
,984079
,360342
,270095
,275614
,784323
,189704
,862420
,407324
,69913
,354209
,529891
,888052
,382062
,357354
,75017
,160158
,641125
,918230
,665207
,737233
,22207
,5742
,377489
,720559
,89034
,445199
,562876
,696212
,974247
,554714
,577904
,519559
,129246
,24897
,793379
,14209
,735919
,876626
,914813
,696175
,393788
,291366
,996216
,992152
,144854
,959275
,983725
,966945
,134664
,199372
,43980
,868117
,573851
,500344
,355286
,138032
,51679
,750070
,264595
,211064
,391668
,840943
,375865
,57755
,350707
,174841
,342494
,299239
,283304
,773391
,716403
,93203
,869926
,713039
,202657
,224109
,631958
,264782
,419475
,551786
,875139
,124072
,566614
,591591
,755422
,458703
,429913
,584770
,624122
,54644
,32874
,612224
,77191
,665734
,906973
,232845
,764895
,311898
,178400
,41433
,549542
,347373
,832807
,483185
,756389
,105703
,300474
,360636
,910922
,854549
,831390
,414825
,372038
,772376
,649814
,544847
,317085
,856459
,418781
,911065
,264237
,261562
,998295
,767810
,327861
,627324
,346411
,168208
,119894
,482189
,3643
,828055
,750832
,736716
,515386
,674591
,900042
,459239
,360798
,751896
,278286
,979122
,101101
,620351
,886525
,792777
,15439
,15936
,859922
,500472
,117724
,964559
,98673
,345986
,458581
,69514
,669831
,299769
,42617
,421081
,603515
,863053
,233142
,540903
,75820
,457382
,914042
,53975
,469557
,873713
,557144
,510192
,523485
,48217
,834896
,861538
,812229
,463790
,753002
,817446
,807326
,272771
,143138
,585836
,533266
,518009
,37420
,870249
,377140
,320178
,201551
,400455
,734906
,853188
,258464
,644163
,30145
,110038
,86616
,880708
,146308
,776478
,176569
,548561
,243780
,887849
,34495
,342350
,687428
,457145
,575683
,330069
,668690
,651879
,37913
,757832
,377074
,918091
,272661
,676274
,684295
,345167
,512932
,272100
,589260
,924140
,736764
,747508
,890649
,919819
,557389
,141921
,598267
,382319
,927567
,551851
,358066
,920482
,352862
,265038
,440523
,541501
,190584
,174086
,959951
,605126
,647837
,60754
,659992
,995955
,16392
,304428
,758676
,951818
,855769
,319033
,884326
,930341
,56147
,320272
,927429
,747687
,999753
,137889
,742061
,908346
,242649
,727854
,710797
,255757
,307172
,451919
,281354
,266401
,724881
,72898
,607236
,740730
,217964
,10638
,572945
,82762
,912172
,14357
,994874
,720684
,893559
,442608
,102427
,630258
,740231
,836264
,732030
,668525
,999493
,80251
,726533
,132012
,377607
,294347
,357694
,56377
,224156
,535751
,561702
,915538
,568262
,243416
,289563
,308889
,886608
,534642
,250769
,917137
,942665
,749820
,781189
,649122
,630983
,189738
,499323
,431885
,189448
,26135
,579805
,277212
,234192
,954406
,523660
,794659
,196547
,428626
,38029
,357827
,186945
,807789
,295644
,740262
,42815
,808968
,745026
,973360
,844498
,556387
,781819
,1
,0
,797644
,344756
,230904
,653585
,720848
,224975
,461002
,348288
,771161
,902094
,636056
,329248
,928233
,59407
,539865
,840301
,304892
,886315
,925390
,993809
,295846
,637936
,65053
,632161
,377093
,719754
,630889
,701208
,945263
,214704
,397833
,393666
,327123
,306588
,445104
,666731
,155146
,238015
,500769
,375218
,687187
,418185
,72096
,216173
,249966
,104265
,291078
,534976
,181330
,967296
,489411
,443464
,795107
,407810
,19564
,224378
,830951
,345796
,572420
,704648
,798969
,366199
,183884
,664128
,436288
,764270
,581161
,144639
,235175
,902686
,163380
,374027
,690787
,208785
,481653
,250834
,107399
,535848
,803865
,462303
,551374
,746864
,497607
,577662
,447989
,2370
,453761
,539601
,196269
,2842
,501314
,895726
,35306
,366598
,630436
,483693
,354211
,496663
,521123
,83035
,61919
,685033
,244609
,560791
,618302
,527990
,966673
,270490
,56063
,500976
,1886
,776224
,341460
,294615
,704045
,349972
,22605
,217474
,360
,31413
,954391
,516615
,50847
,675998
,574662
,377465
,129863
,405218
,381055
,272562
,957506
,37044
,936146
,165239
,692523
,799081
,660284
,89673
,531725
,794632
,342522
,229218
,266579
,937945
,717485
,502708
,31239
,125430
,290855
,581217
,780617
,458470
,919378
,505721
,971807
,684132
,442404
,164123
,498206
,529231
,131813
,222550
,992011
,966858
,50578
,755678
,639489
,612969
,346421
,706455
,192672
,727546
,852495
,632812
,667548
,916389
,153024
,639036
,281324
,140355
,587706
,92700
,701360
,979377
,782866
,836739
,110568
,121674
,703748
,231797
,122169
,937083
,636513
,501873
,347342
,617849
,616614
,537120
,919086
,670916
,710239
,919129
,180950
,550648
,277851
,564842
,341857
,422310
,594640
,481867
,854831
,269357
,21503
,83039
,98930
,581237
,96727
,924338
,737946
,845052
,46
,857778
,382655
,625526
,922246
,736491
,125446
,456185
,597292
,841879
,671607
,698540
,19513
,190834
,213079
,224100
,250112
,897399
,731087
,205322
,753395
,849283
,353329
,948527
,362698
,723079
,753773
,749544
,539595
,8608
,484759
,830353
,645549
,759861
,867237
,701903
,767910
,993629
,344985
,843447
,870427
,188234
,866140
,755519
,396156
,155809
,784307
,797255
,66423
,646624
,704500
,993433
,346295
,380443
,714803
,766260
,116015
,813032
,664916
,353768
,880920
,776569
,592386
,168959
,128440
,38404
,816126
,792471
,279623
,559609
,469428
,85475
,662031
,74810
,127388
,516526
,527400
,489222
,667281
,439118
,818665
,587563
,174457
,883621
,312280
,758910
,941771
,558151
,123103
,568253
,848256
,816360
,671010
,43550
,231914
,232323
,723482
,766723
,826670
,595604
,518800
,533890
,723516
,365612
,14225
,214340
,663011
,49202
,577609
,643441
,924037
,641274
,662673
,540408
,239126
,331604
,336340
,313788
,850625
,642847
,295083
,353003
,210864
,714661
,286400
,949126
,396367
,484396
,452799
,391100
,300225
,932661
,541572
,750775
,609587
,587089
,408959
,982567
,749720
,340327
,336653
,474793
,317487
,467501
,521174
,488727
,582644
,680353
,483716
,273524
,326307
,698276
,712311
,254924
,135355
,890222
,135244
,207938
,162599
,676567
,825432
,550429
,638785
,6665
,259620
,880685
,339175
,341213
,342550
,436203
,705614
,346539
,436038
,68703
,178520
,155309
,837931
,210620
,489198
,560745
,884432
,963448
,754915
,489793
,489667
,683241
,201123
,910944
,778645
,527343
,231223
,368220
,340635
,685674
,998257
,991098
,14401
,834036
,279566
,401500
,242816
,609248
,806825
,259469
,65789
,735202
,934774
,924593
,32388
,878160
,552236
,636725
,940045
,606568
,354354
,108784
,956165
,923742
,109018
,509434
,448250
,403051
,534728
,105575
,991017
,43576
,9301
,483348
,715583
,124005
,825607
,709580
,416716
,161118
,671139
,25415
,512861
,536366
,684566
,795677
,9347
,64936
,80406
,38019
,197117
,479859
,160649
,212598
,782238
,366152
,649419
,214713
,706128
,170047
,133538
,36990
,978863
,329034
,218205
,452033
,346139
,118866
,440879
,396842
,922605
,300529
,612337
,643374
,304323
,52981
,565604
,869554
,74586
,573636
,631208
,439769
,776932
,835925
,872385
,87905
,386450
,240916
,810167
,680396
,81632
,295499
,841767
,898656
,616059
,613429
,929987
,308024
,874181
,215570
,714754
,861807
,767515
,231319
,465067
,204983
,803567
,191715
,917996
,397316
,736281
,595157
,616529
,209698
,379030
,719575
,681657
,869814
,903225
,474518
,164750
,381896
,923506
,936729
,165094
,382065
,286640
,908520
,156706
,109917
,320281
,979869
,537140
,865387
,865238
,657328
,68803
,66912
,848456
,766427
,710955
,281511
,450871
,152982
,264253
,852090
,653839
,24248
,28641
,44975
,541107
,875756
,363562
,717391
,314990
,376629
,952373
,408315
,638746
,351440
,272269
,213112
,814153
,184216
,984022
,176341
,829288
,512653
,43507
,595679
,740454
,538974
,535245
,991852
,331166
,331001
,280620
,368750
,80012
,782237
,666877
,770681
,546237
,136969
,725762
,879882
,157137
,695891
,420910
,15444
,404301
,32424
,11136
,457513
,959801
,19391
,724170
,797933
,545778
,972047
,477333
,840317
,656830
,854427
,884070
,170874
,944392
,733435
,214361
,1132
,7067
,802432
,294349
,898656
,479205
,683923
,514527
,182512
,272732
,372963
,382824
,133353
,623272
,294477
,469052
,655616
,791097
,705672
,995682
,974495
,222442
,354140
,739779
,889167
,574677
,329631
,825679
,731178
,888106
,249283
,696241
,135420
,642953
,28825
,930151
,674318
,598055
,536814
,25935
,236669
,515584
,47514
,378941
,24655
,198301
,451308
,757912
,391771
,994990
,866034
,725492
,965544
,551937
,207050
,172346
,324855
,894145
,866485
,746548
,245352
,73865
,154627
,717006
,640734
,983345
,192079
,38923
,201203
,987243
,969462
,419155
,744856
,536203
,249616
,521168
,890866
,851813
,342738
,290559
,546758
,231244
,268973
,55382
,633744
,746364
,178409
,349852
,990198
,446037
,687986
,554065
,387269
,830201
,715422
,666900
,364667
,740130
,821276
,45607
,649893
,264075
,165841
,992248
,246638
,93330
,487672
,113313
,864601
,29319
,4336
,353710
,866941
,460909
,748031
,973590
,221096
,971996
,810062
,272493
,552524
,185500
,601566
,571223
,214533
,431202
,604559
,529281
,69469
,372683
,699127
,283315
,344277
,411276
,116471
,367343
,614938
,342370
,243029
,536737
,642918
,281356
,481154
,916923
,601508
,211013
,108538
,327859
,164629
,678673
,18149
,293620
,2974
,225874
,756866
,178304
,145980
,474296
,272592
,937559
,148532
,357727
,73292
,622679
,329529
,571111
,721106
,84255
,572795
,943216
,653290
,586914
,574453
,324687
,194128
,363764
,170370
,171889
,915759
,298503
,488580
,483641
,279398
,328737
,191611
,950298
,935866
,303381
,882210
,708354
,970686
,470104
,397290
,599721
,190510
,697965
,912130
,639151
,617679
,465286
,719485
,556655
,325338
,887976
,243983
,463325
,649090
,464377
,48014
,597270
,14304
,850603
,319488
,282739
,920847
,544161
,32856
,768991
,264997
,419434
,891799
,700045
,175517
,350327
,468283
,727757
,508519
,380271
,234813
,365369
,691148
,627807
,655309
,112796
,157165
,668594
,675406
,92553
,741195
,968378
,599433
,301497
,513134
,107138
,210921
,613079
,423440
,385809
,176399
,248655
,116072
,747104
,795886
,438354
,9635
,492925
,849810
,142758
,221868
,188957
,319485
,224039
,363359
,674347
,176419
,488855
,915044
,996491
,881839
,226536
,926976
,564844
,911828
,846567
,813247
,190024
,758834
,695534
,410736
,59188
,2154
,486772
,66151
,482929
,977620
,394642
,182746
,335016
,716831
,151226
,953386
,239969
,453707
,8148
,740558
,30710
,936946
,49319
,310846
,102486
,309865
,982457
,983167
,872786
,27505
,701660
,898030
,479683
,495452
,920164
,256842
,747994
,213536
,362947
,110847
,844765
,161266
,876424
,959202
,913491
,16479
,30743
,294797
,740157
,350349
,856952
,320644
,401894
,931154
,153438
,322767
,749004
,686270
,886286
,234698
,811849
,711794
,183739
,854822
,515961
,214629
,376787
,549024
,632817
,980657
,805828
,670474
,511376
,629141
,96536
,918728
,576054
,779914
,73198
,1093
,674486
,673827
,956163
,593026
,156131
,822059
,30433
,544818
,448210
,107813
,543269
,229334
,928878
,446119
,91584
,703032
,229559
,898906
,416067
,409344
,984556
,774182
,959119
,569096
,325218
,298206
,429148
,399391
,780759
,530657
,57968
,953745
,684101
,210299
,669462
,810841
,674608
,859532
,8575
,248546
,173831
,317804
,682259
,567614
,70678
,830032
,630386
,983946
,631335
,812001
,811000
,678361
,245637
,276915
,60772
,517036
,136526
,662137
,60262
,497616
,575260
,96324
,799537
,325213
,983325
,124054
,177566
,749558
,416921
,771205
,936371
,274022
,662605
,40522
,762422
,988522
,412875
,511644
,815835
,816013
,18502
,56523
,924797
,968038
,724064
,598149
,148684
,963561
,741075
,102744
,44998
,565149
,81263
,950365
,426391
,504277
,307118
,304955
,360635
,977633
,897226
,501921
,964479
,179144
,141827
,801580
,262175
,344521
,32866
,13722
,453084
,585889
,583783
,496219
,237708
,651691
,91939
,9454
,585587
,686497
,889388
,5410
,306586
,301615
,920320
,984693
,38920
,576413
,247136
,223988
,395241
,880192
,618102
,384421
,347821
,713971
,412942
,231342
,712048
,698387
,694061
,122793
,113370
,72692
,809433
,705521
,947297
,513618
,368988
,946079
,252698
,366749
,149434
,451621
,859114
,863306
,64223
,13611
,612809
,751079
,101491
,746193
,188519
,718708
,713500
,34580
,518581
,859154
,400415
,858879
,685476
,264231
,910634
,506684
,889778
,817347
,267219
,944595
,595727
,987620
,797214
,707956
,43239
,772820
,881843
,998110
,1
,0
,200931
,86606
,215609
,140336
,947248
,155033
,712766
,471391
,519205
,722411
,750338
,63668
,311253
,725868
,416193
,215991
,166995
,472162
,699279
,186346
,926597
,2939
,940802
,461171
,317812
,182932
,596223
,957441
,793513
,399877
,206772
,734548
,146388
,245745
,543863
,762285
,134619
,923904
,764706
,741747
,744947
,538252
,337657
,194664
,465298
,114088
,59042
,403712
,609716
,824882
,380062
,690620
,321935
,212853
,758146
,664014
,779983
,271784
,372538
,559020
,990862
,809373
,566465
,505036
,122136
,17926
,836048
,60468
,493493
,36687
,1279
,808697
,627687
,179145
,124089
,534027
,700294
,271292
,743529
,415965
,663141
,985166
,696951
,464443
,878561
,229415
,441822
,499659
,747866
,371174
,774126
,516382
,757578
,748313
,150807
,125695
,907812
,146231
,170461
,11940
,740286
,867530
,626251
,51874
,676211
,603218
,536756
,7876
,915080
,321212
,656351
,570675
,714147
,137725
,525228
,292338
,896814
,708110
,124334
,591382
,641307
,742934
,182588
,338017
,607100
,976121
,572043
,267297
,822832
,533348
,319442
,240295
,649929
,744852
,676457
,384074
,917362
,198702
,706077
,405619
,318031
,182091
,764324
,153058
,509490
,456766
,144300
,651456
,130075
,837674
,548519
,179637
,69912
,870198
,477079
,800982
,742069
,36388
,443048
,195410
,223313
,665996
,211396
,717903
,653910
,901291
,691004
,980875
,219932
,206671
,771383
,248489
,142445
,453713
,490985
,411442
,970631
,825055
,829712
,417973
,466094
,96288
,792877
,836772
,416393
,718333
,994862
,32889
,607178
,500354
,772415
,349541
,373207
,2332
,182888
,62006
,267042
,413151
,614911
,142509
,646785
,318312
,135629
,799290
,767690
,592368
,664818
,199711
,954365
,304328
,309864
,608724
,852856
,939914
,803685
,714632
,499422
,69741
,871971
,317460
,867105
,490743
,385952
,887104
,549972
,231378
,737070
,840184
,472851
,830294
,422657
,398814
,306846
,637595
,452941
,985237
,532688
,579923
,923557
,683925
,359625
,216448
,507350
,723968
,352107
,19600
,842879
,753635
,358905
,325989
,796368
,188612
,412808
,413868
,305237
,284470
,593626
,95103
,10586
,479102
,554527
,141631
,764787
,399820
,315091
,537027
,570779
,908927
,884742
,186405
,789763
,396590
,960709
,964538
,14415
,193837
,513773
,114715
,49797
,275274
,454845
,517875
,740082
,739350
,286210
,390033
,40057
,486518
,499936
,92499
,485986
,50947
,275521
,417502
,564197
,115154
,194404
,74537
,256098
,482162
,903304
,830604
,242638
,628652
,256242
,909706
,537358
,443923
,697599
,241558
,9221
,160440
,522221
,538976
,294869
,714559
,591727
,635123
,358499
,320543
,136700
,832165
,681422
,221849
,25615
,158089
,63082
,664437
,31717
,217768
,119014
,474184
,298620
,334307
,529476
,616524
,879430
,989409
,698875
,280613
,191727
,526121
,638221
,802086
,773795
,842367
,220270
,300771
,651612
,844793
,869983
,472172
,484526
,441093
,143168
,729773
,804819
,929186
,135519
,721333
,492776
,279476
,615880
,401192
,855484
,653283
,566028
,693064
,939222
,742004
,209277
,640790
,739022
,825162
,990997
,349420
,266949
,893721
,121796
,206651
,384134
,502310
,375333
,593824
,387930
,868502
,883445
,331714
,166966
,915201
,620748
,650631
,80256
,792674
,854623
,7648
,186282
,931780
,221745
,561442
,642728
,807942
,641667
,390574
,739986
,945154
,246503
,449491
,693506
,90778
,598787
,509200
,787986
,64293
,76628
,196611
,544984
,864084
,169607
,308352
,643274
,202719
,860004
,228619
,587232
,90314
,246662
,424946
,53508
,930522
,500418
,526175
,949827
,392919
,497055
,230140
,998321
,817952
,854020
,691945
,608396
,67268
,919700
,733756
,688213
,258
,292373
,810374
,502317
,263235
,988384
,512073
,555300
,164666
,160421
,415144
,267283
,634068
,478674
,277676
,875582
,301432
,667196
,783802
,263024
,398370
,993290
,593324
,701616
,734507
,922524
,773259
,880079
,159842
,256584
,240048
,362011
,319993
,61528
,894856
,922550
,743645
,909873
,511731
,808364
,620735
,530449
,999702
,8769
,860916
,823374
,536077
,937106
,646515
,261388
,450461
,883571
,674496
,261498
,886082
,72318
,823657
,93396
,668627
,462161
,173397
,39572
,929180
,506727
,500484
,729207
,872889
,8420
,157654
,558583
,517687
,953588
,77008
,90749
,618071
,639152
,756646
,560016
,988708
,369075
,543662
,950631
,648136
,516345
,304552
,843841
,246004
,683967
,462652
,784150
,104104
,642959
,755801
,661515
,585824
,732329
,389887
,600167
,340688
,453674
,415000
,550979
,525324
,844238
,355620
,208913
,958856
,253141
,83858
,536210
,819506
,266567
,326871
,917275
,758251
,788955
,422229
,768672
,149882
,652295
,992742
,208897
,195905
,574649
,304468
,60133
,446029
,179935
,803190
,210966
,409363
,258486
,987720
,301280
,263286
,104793
,816049
,429939
,99281
,784641
,114718
,489873
,987621
,988315
,235221
,669811
,710031
,708012
,434405
,413865
,728178
,250118
,559582
,390049
,575526
,537882
,219937
,8003
,769377
,439585
,644154
,161633
,812492
,754381
,130617
,422876
,636825
,842498
,815846
,855036
,308522
,491836
,682438
,693457
,306759
,985418
,492718
,855728
,922864
,281388
,673680
,561296
,485474
,576323
,462354
,969700
,20382
,311346
,421911
,928108
,402738
,93636
,5925
,195720
,764416
,239470
,99410
,315128
,746693
,502025
,10674
,712249
,60142
,924762
,309671
,448087
,460457
,259542
,147223
,474274
,841796
,178641
,996161
,827646
,878143
,454871
,359458
,933655
,881086
,742440
,832333
,603902
,141164
,359525
,316397
,131645
,183874
,68381
,502949
,797268
,876768
,426930
,900154
,845358
,77042
,537643
,55217
,231219
,751695
,425850
,976115
,216757
,451539
,834834
,886290
,537774
,541617
,755917
,264804
,898312
,457232
,679952
,231674
,56460
,473961
,161998
,300664
,492066
,408237
,872840
,463089
,468314
,925266
,385687
,140105
,13565
,133984
,58592
,522450
,141078
,424063
,650587
,982608
,419711
,343514
,269075
,309788
,722239
,401530
,452612
,633309
,845193
,598732
,490823
,187730
,761173
,241661
,984667
,73591
,884851
,860232
,20192
,449533
,437775
,794526
,109971
,692091
,956481
,162145
,779425
,311407
,545195
,189390
,438499
,958685
,221021
,252053
,263086
,504122
,846141
,83582
,587115
,752961
,987160
,255788
,590087
,844173
,753920
,24309
,639425
,77386
,948348
,158028
,340707
,57316
,453748
,354034
,899271
,202066
,163301
,227287
,797145
,144167
,901046
,709524
,231302
,384537
,590090
,568936
,154541
,221629
,73908
,309813
,682641
,182684
,446719
,374015
,55
,182684
,527970
,302899
,195444
,241513
,396255
,204161
,952522
,105538
,578290
,116321
,857440
,169604
,403646
,457795
,992993
,262394
,435973
,209233
,703390
,903288
,831026
,252797
,547371
,880008
,835935
,18735
,841692
,444623
,384275
,182279
,809055
,689469
,297557
,740476
,874346
,751484
,470275
,739564
,486141
,415776
,439363
,388691
,444275
,522528
,501349
,259023
,144319
,708863
,572041
,346928
,569150
,621329
,251948
,141572
,199470
,835826
,348164
,91928
,12551
,979286
,752521
,448732
,772572
,966661
,438311
,908612
,971575
,804164
,734581
,229156
,277051
,329654
,885096
,451459
,265156
,827672
,674668
,804405
,448910
,680407
,123346
,780419
,907086
,922508
,257445
,6170
,319151
,15928
,547484
,184929
,844535
,780675
,628175
,496211
,814234
,737991
,724148
,935064
,638809
,38205
,698647
,22678
,923333
,699293
,763951
,564294
,371102
,465457
,740742
,387843
,470537
,133771
,299265
,289031
,498136
,748534
,255944
,29340
,645106
,688557
,293752
,292523
,530321
,310921
,292097
,809843
,815811
,125291
,582135
,153111
,544788
,926126
,829585
,853163
,485138
,354086
,567998
,399563
,542590
,275131
,171081
,800852
,661731
,770696
,219535
,509251
,743848
,861728
,358283
,419817
,804851
,528936
,450151
,429982
,768700
,723949
,398508
,475510
,679830
,259463
,47331
,978655
,60767
,778456
,643145
,565225
,718607
,10412
,290780
,28329
,325617
,108338
,876630
,640224
,165794
,533031
,575100
,163563
,952884
,690383
,352238
,87839
,150697
,969453
,623947
,889162
,72223
,59159
,206963
,64882
,874561
,484665
,878456
,892702
,500537
,583235
,781216
,820561
,70984
,904067
,840698
,159652
,809823
,411139
,532114
,464576
,231990
,504192
,884404
,732924
,166463
,78861
,855651
,674023
,920118
,148948
,480268
,700722
,525952
,322039
,930088
,709124
,421155
,930133
,889149
,274742
,606149
,901008
,556724
,703732
,689522
,656859
,626407
,16204
,929356
,834899
,837249
,233002
,937900
,585229
,899493
,695887
,867951
,329247
,949949
,466383
,414525
,29217
,504415
,999475
,2188
,683339
,969924
,122988
,567629
,771719
,790634
,133515
,748599
,960098
,862560
,675965
,31461
,83659
,951378
,698074
,633907
,867943
,582468
,820501
,917951
,694771
,580584
,443746
,54480
,378075
,627773
,218595
,995919
,727201
,806685
,395342
,632503
,590443
,308977
,345138
,457370
,458564
,80082
,18530
,246990
,224144
,690009
,126272
,551471
,361961
,384118
,832439
,330869
,434343
,314371
,201627
,646240
,708840
,715423
,100497
,195472
,282525
,563045
,386714
,188864
,109211
,951542
,44659
,552203
,669015
,943593
,49952
,280131
,275469
,978637
,404900
,515796
,546274
,362973
,398823
,622098
,658467
,812689
,52054
,176554
,956500
,260502
,143655
,304351
,31450
,976302
,815097
,919366
,703914
,652436
,204918
,958070
,167327
,640236
,947209
,968154
,893506
,824923
,637282
,964676
,11996
,833531
,316965
,957853
,480036
,873860
,849265
,301652
,16547
,195305
,375369
,767094
,846442
,760591
,20792
,575639
,1
,0
,188715
,55974
,110564
,156084
,722232
,852533
,489247
,902503
,998750
,927682
,462989
,158565
,777575
,724284
,12848
,467427
,744487
,841460
,481758
,678766
,703895
,846828
,218140
,902681
,581216
,907980
,233486
,827365
,332604
,691103
,730543
,295138
,859743
,196401
,810419
,431476
,27549
,684728
,425674
,246249
,715068
,851259
,675187
,151339
,842911
,597648
,960176
,737533
,684860
,840490
,946896
,967711
,536764
,911189
,135890
,926311
,322679
,636929
,786657
,971828
,854040
,222626
,430191
,49473
,768845
,444740
,751769
,97181
,466281
,262609
,679170
,762048
,609090
,692776
,297286
,497239
,826051
,598233
,870542
,651756
,73065
,708042
,111442
,909511
,440235
,48672
,983311
,307668
,271294
,70925
,771946
,497765
,658990
,452009
,244120
,1300
,330974
,978943
,337969
,626917
,524443
,739676
,495532
,469198
,331711
,123940
,266473
,878719
,999532
,865226
,293599
,474479
,935773
,323090
,347868
,97027
,306294
,863523
,70754
,531738
,5442
,153031
,96916
,549605
,470375
,324105
,365267
,792575
,636551
,915775
,753401
,232130
,453312
,663005
,493019
,557465
,924059
,761896
,771242
,256838
,664648
,196907
,550358
,458870
,841544
,745958
,534123
,783522
,557038
,403893
,199464
,996305
,197895
,829714
,479609
,559552
,950638
,497926
,389583
,677052
,402198
,42921
,866652
,752656
,25851
,802853
,918803
,172610
,277996
,212944
,604522
,682067
,225205
,955791
,640109
,708054
,168840
,720613
,658186
,722161
,174415
,926680
,852404
,389417
,86905
,937650
,187558
,784324
,171997
,320192
,889549
,316246
,953719
,635632
,848910
,363793
,20934
,783841
,514035
,153963
,380542
,683138
,571150
,544866
,516670
,634450
,570381
,953877
,132934
,937552
,639936
,298722
,652298
,338993
,876817
,718076
,328744
,137094
,282223
,642385
,599884
,606648
,870869
,531280
,618064
,906375
,450590
,507815
,526134
,109046
,30852
,3167
,471650
,760457
,437895
,457189
,73429
,824672
,70571
,877047
,157916
,95498
,976803
,652835
,597276
,67136
,533883
,501487
,280888
,75473
,574614
,384061
,622010
,724377
,617651
,554339
,785063
,893568
,454982
,807540
,343495
,570170
,513942
,669608
,602074
,557036
,529293
,275595
,342009
,213250
,145894
,140069
,905605
,212707
,992387
,473795
,239397
,262723
,621091
,272336
,87441
,777107
,851581
,222263
,630527
,419451
,863979
,127599
,451205
,888128
,878227
,607320
,662302
,888087
,553971
,282002
,214572
,713074
,988569
,691731
,175273
,894665
,376246
,429536
,333930
,319648
,743289
,22125
,374600
,305882
,880067
,270933
,180945
,162230
,302915
,605692
,227403
,979331
,434708
,974876
,403258
,307397
,745679
,831752
,89936
,80943
,144231
,64132
,607103
,230156
,240894
,43895
,964786
,111376
,494289
,163636
,271268
,179575
,225189
,761097
,823827
,360408
,29219
,916480
,665516
,697881
,925338
,470523
,875140
,30179
,604198
,763749
,756603
,779542
,628834
,879408
,719341
,179948
,716674
,416574
,930822
,406617
,90442
,853970
,113920
,324749
,489683
,142331
,612447
,52197
,632806
,330350
,240829
,625951
,665386
,408442
,846449
,168881
,564481
,994653
,629026
,617047
,678778
,23696
,691213
,201668
,112679
,189236
,551888
,265757
,540028
,542943
,225489
,258723
,190413
,854018
,884436
,464059
,711766
,523830
,122670
,800129
,659786
,710809
,924135
,396714
,464646
,722537
,780103
,88712
,210033
,853449
,758494
,940898
,870907
,310182
,290940
,812665
,355137
,525000
,3494
,932231
,883356
,165485
,407028
,472986
,596964
,979997
,938057
,91988
,286728
,464380
,38908
,695070
,411294
,405876
,218656
,401730
,75416
,737625
,84957
,429991
,768371
,553703
,133002
,640465
,69210
,477666
,240402
,674562
,896127
,261738
,580494
,656758
,158880
,585661
,582999
,152262
,228712
,407522
,386927
,234795
,390982
,687717
,74713
,815790
,179603
,534240
,86937
,57632
,260063
,471446
,946335
,838782
,793667
,914086
,812215
,721174
,856025
,932907
,83862
,197617
,317493
,371100
,935390
,862946
,172191
,390564
,480813
,502801
,693584
,904079
,441702
,404384
,397493
,187449
,728395
,256434
,789088
,866691
,65799
,306824
,433540
,773341
,412443
,2329
,767789
,297825
,357635
,522043
,556777
,576999
,950198
,522557
,807589
,635020
,35899
,550944
,827135
,355199
,130218
,546873
,252066
,563254
,495602
,447581
,273222
,449740
,423338
,990917
,852334
,558571
,656805
,711985
,584298
,848225
,744590
,207334
,616628
,716854
,209998
,127404
,338579
,333843
,596841
,515647
,625453
,840769
,137122
,621066
,870511
,791809
,268485
,679183
,118140
,644981
,929524
,385563
,520160
,278506
,779643
,704062
,169467
,183492
,190770
,778368
,30093
,598808
,891896
,477632
,145302
,203363
,898103
,266866
,842386
,403099
,43358
,157278
,216092
,574957
,479216
,60206
,758788
,740598
,24756
,348246
,840818
,185458
,473406
,166195
,61473
,113806
,689496
,146667
,919290
,192047
,893623
,426979
,544659
,170333
,195499
,675729
,567766
,415330
,156127
,928840
,337420
,625213
,12251
,242315
,170378
,421663
,320910
,288958
,967424
,15717
,747327
,175712
,673738
,441765
,155203
,171526
,585343
,960795
,911963
,175066
,728865
,750946
,183090
,316835
,285778
,231109
,449250
,944728
,157153
,18283
,247585
,296367
,358027
,440859
,627928
,626716
,263607
,125063
,343570
,55424
,173059
,772246
,677654
,220694
,797375
,721191
,126849
,89397
,7614
,130842
,298081
,269288
,687989
,673968
,474769
,751279
,126831
,119697
,652069
,931216
,96252
,903544
,86533
,771424
,763758
,810022
,8800
,671435
,344476
,261647
,809548
,527784
,788516
,220892
,214193
,487967
,902190
,510448
,549815
,404783
,123240
,60268
,246046
,480923
,172124
,792705
,475869
,318753
,141492
,679026
,801501
,956857
,867340
,429500
,124063
,888499
,525325
,633190
,621095
,679100
,987211
,660457
,285467
,983729
,334662
,996990
,803985
,251723
,342000
,236461
,504342
,560141
,232293
,777656
,342032
,607977
,787809
,660665
,319076
,980641
,909778
,564668
,43732
,398645
,323549
,126725
,214663
,547456
,794675
,498793
,227165
,600331
,961468
,478640
,885637
,492560
,568423
,732126
,276418
,6225
,436532
,867023
,916362
,538339
,482148
,108814
,140254
,15206
,86340
,655213
,171424
,409525
,13453
,579873
,997573
,613666
,321302
,739163
,962590
,969733
,20254
,962429
,833092
,718077
,106293
,380262
,209875
,481530
,537231
,368188
,524832
,194616
,984890
,91640
,296178
,83918
,739683
,871971
,386345
,423287
,941938
,357938
,818140
,944516
,494296
,603358
,869942
,28144
,110577
,393726
,396441
,469481
,806952
,748473
,765027
,584663
,572565
,998345
,766773
,166302
,634342
,869199
,975512
,68880
,634938
,344464
,947982
,820114
,580537
,222806
,536843
,595631
,626133
,995058
,216516
,327693
,149685
,555795
,825593
,524136
,913297
,141349
,64891
,683451
,76056
,741045
,990642
,606928
,435327
,529208
,128523
,797344
,639429
,787682
,70147
,353941
,529713
,613154
,697862
,574028
,468483
,722457
,739045
,934869
,298028
,916745
,517088
,899318
,614923
,222663
,893721
,894392
,670540
,255801
,410512
,562688
,281383
,930990
,811533
,312949
,344469
,129283
,556192
,277919
,920481
,630885
,44250
,653189
,326811
,931352
,251378
,529581
,603430
,979730
,485032
,291448
,198064
,809917
,2348
,962019
,664035
,756544
,700886
,231439
,184838
,659468
,66483
,804706
,997852
,380231
,359150
,159636
,634700
,353866
,701972
,605150
,37140
,257707
,369076
,606393
,352446
,485482
,987074
,393180
,397369
,316577
,771266
,353665
,925558
,882416
,918900
,283342
,923998
,371676
,583112
,49821
,505109
,124731
,829267
,665068
,927372
,428556
,712814
,860643
,868839
,348017
,223387
,816684
,773013
,153461
,238945
,760577
,585125
,680049
,793480
,772865
,747416
,643521
,127882
,854380
,382561
,688122
,827884
,763767
,302935
,189373
,36477
,803595
,443370
,698615
,222784
,382642
,112616
,265192
,857153
,651563
,216143
,417528
,667485
,133413
,440002
,776397
,351538
,352509
,346509
,509724
,759106
,860657
,386664
,639741
,350320
,644271
,45304
,781191
,931120
,774253
,724087
,144871
,183579
,291716
,369743
,633534
,358517
,807580
,826590
,186310
,824824
,937703
,41788
,491805
,988021
,865785
,644648
,834978
,889394
,75032
,82662
,932768
,803923
,161781
,407249
,181850
,72423
,872906
,566548
,419080
,120461
,279241
,43491
,318957
,928232
,97465
,65327
,327900
,37653
,282233
,217713
,868106
,60753
,493866
,111962
,159506
,17166
,226901
,568645
,899410
,759265
,645276
,268633
,659304
,851995
,991891
,208883
,997168
,708754
,912456
,550992
,715474
,576477
,631603
,356099
,173685
,912133
,480680
,409816
,487052
,284818
,462947
,604612
,139931
,134575
,609796
,752454
,595712
,623551
,8587
,985315
,321408
,88191
,601176
,793334
,139544
,31955
,782722
,858320
,3446
,545597
,16863
,230152
,202421
,885625
,337506
,968399
,14629
,455171
,238648
,364614
,493285
,488069
,861197
,524547
,71098
,8898
,487759
,949764
,252138
,74262
,300089
,255249
,660810
,228186
,554673
,297939
,880653
,546485
,897403
,727711
,613126
,607231
,85056
,962389
,677200
,799364
,74358
,404077
,630211
,482271
,881901
,958264
,675736
,37033
,435301
,62724
,268018
,24078
,988717
,23948
,235783
,195043
,581269
,376198
,593028
,81601
,497191
,709641
,455409
,607841
,660844
,112835
,145460
,844662
,457756
,302331
,380799
,500730
,543374
,668662
,292119
,149219
,516136
,195084
,579903
,184538
,338887
,682618
,563014
,682158
,132508
,577231
,668760
,67119
,25848
,974865
,415814
,161469
,1
,0
,826975
,750597
,136170
,194129
,147833
,80717
,709683
,8897
,853719
,927879
,195221
,629225
,669652
,219081
,718553
,933630
,913741
,677422
,367220
,443987
,533634
,822364
,568045
,549257
,271543
,845197
,155983
,552502
,569020
,523082
,447099
,421573
,577131
,351012
,567773
,142877
,632471
,125461
,612412
,235205
,866291
,571096
,221257
,602001
,840101
,69213
,377524
,273053
,776688
,403712
,158808
,303291
,234063
,311441
,601967
,240724
,232702
,922771
,840552
,985670
,365376
,333917
,222286
,795695
,100640
,455113
,592994
,10581
,555453
,758458
,740271
,851921
,266399
,563314
,508549
,239005
,987308
,746121
,614682
,445380
,314115
,675572
,271779
,578004
,463372
,752462
,379314
,420863
,683361
,313471
,340686
,401221
,196091
,251519
,286412
,27077
,70143
,180707
,533921
,635088
,242811
,343079
,963938
,277773
,123811
,411886
,769073
,887737
,468496
,987588
,543821
,738670
,833609
,727980
,277525
,308231
,491442
,31283
,819908
,377415
,122649
,963690
,426809
,609027
,953327
,954959
,211080
,7737
,768505
,581934
,140116
,541376
,612964
,432326
,119832
,470757
,1719
,207171
,892890
,459615
,957540
,654564
,290557
,403991
,325831
,855319
,801227
,656532
,19800
,382923
,670182
,575842
,65294
,638912
,561845
,882319
,430693
,238122
,610194
,404526
,534651
,1642
,578105
,619898
,556254
,634573
,473389
,383288
,601462
,47013
,556457
,213054
,966143
,538429
,172606
,387620
,598038
,895041
,804542
,562155
,802923
,420391
,813659
,279275
,119329
,411070
,494088
,761359
,935787
,521355
,536471
,377980
,589210
,611580
,633513
,55745
,182180
,634953
,592659
,436300
,641203
,207712
,949194
,962701
,425585
,163451
,822764
,651337
,12996
,273771
,473884
,921755
,58839
,438473
,246335
,728556
,219562
,512689
,912820
,699383
,47821
,693529
,225562
,799152
,783245
,676991
,727838
,76823
,198793
,827333
,459242
,996772
,686168
,216025
,975247
,594479
,530866
,968048
,501138
,349096
,925439
,239385
,970778
,624234
,563498
,991925
,783741
,757670
,932084
,708871
,728965
,945465
,242712
,243314
,596079
,956111
,423507
,887976
,699642
,637290
,571501
,399421
,38429
,366652
,757106
,285825
,448935
,640980
,150458
,873159
,688362
,439585
,221024
,92766
,622892
,525512
,274315
,496016
,322919
,153559
,344839
,468221
,69948
,706681
,990453
,203689
,400185
,18603
,422089
,293822
,474160
,996415
,621336
,668934
,762300
,542268
,634365
,579499
,252703
,252511
,816242
,535684
,829341
,2878
,359430
,687609
,406852
,517402
,765947
,328144
,617662
,327234
,871623
,675009
,535277
,65288
,153571
,387194
,76003
,13696
,848151
,172874
,431254
,279314
,824630
,91192
,176290
,878835
,851478
,621862
,711534
,659678
,530942
,763186
,132882
,647775
,913558
,443852
,279676
,630984
,517045
,493945
,909040
,246903
,762089
,700693
,659149
,151686
,187251
,367989
,645216
,955040
,290441
,602838
,217936
,521530
,109331
,823728
,194423
,656825
,788181
,736177
,823440
,516437
,18727
,229506
,887820
,209330
,519749
,617006
,362966
,348104
,377578
,60468
,992321
,276865
,894892
,9639
,930946
,726908
,972377
,406572
,656721
,75063
,156746
,363561
,709267
,694857
,184025
,441105
,441733
,684505
,229755
,799215
,573651
,498948
,843523
,109618
,947803
,640722
,411664
,615776
,95763
,837681
,751020
,222755
,301542
,254747
,270337
,416814
,126736
,40097
,174412
,373106
,813129
,851076
,389509
,30154
,614816
,132590
,991330
,223115
,87134
,885271
,864427
,778207
,808174
,737771
,595639
,638371
,60401
,292573
,709277
,568107
,569411
,905659
,757648
,703436
,418509
,699646
,910212
,329474
,886225
,542394
,790116
,417370
,523093
,851090
,453860
,278251
,46634
,316158
,847287
,966260
,185942
,281662
,334020
,730602
,16328
,300759
,121717
,387551
,988388
,703411
,617195
,96430
,826843
,8905
,332062
,278817
,451020
,772014
,31195
,285467
,270717
,862324
,858922
,730861
,122675
,793489
,372743
,940024
,707200
,53209
,333535
,562614
,544338
,14356
,131468
,779323
,299745
,795345
,424762
,908852
,243455
,845569
,128932
,182348
,175314
,265437
,327843
,158113
,500804
,582471
,505431
,396951
,882212
,790168
,800873
,52047
,257939
,494183
,412994
,336128
,286839
,327476
,342910
,455093
,482692
,612714
,387420
,638050
,896218
,534668
,465635
,269456
,287091
,713685
,424121
,516270
,248406
,736444
,177628
,910518
,510237
,83825
,356934
,165868
,841402
,456922
,219068
,328862
,429940
,586343
,373628
,170884
,63621
,785610
,939362
,758388
,826122
,237425
,637522
,661740
,197435
,700252
,538788
,682161
,455004
,536603
,655147
,900890
,325269
,694916
,572739
,187496
,898078
,66709
,74612
,709038
,680974
,716963
,197362
,539812
,647223
,392871
,146950
,634624
,147732
,47861
,503710
,78234
,480458
,870066
,182348
,394398
,919830
,644173
,754192
,564996
,140948
,291448
,448316
,24784
,429265
,657025
,200027
,255056
,952039
,340691
,71077
,639906
,751072
,901537
,452572
,607009
,530445
,718617
,838178
,7788
,142690
,415104
,966701
,655872
,607771
,436010
,291414
,232990
,814181
,805500
,357976
,678318
,764877
,482837
,328277
,43171
,677291
,955641
,393108
,14520
,634390
,836940
,39430
,540436
,865162
,236234
,922687
,712068
,128269
,615160
,694893
,397430
,812663
,437756
,659175
,62892
,221245
,16435
,915470
,327091
,260339
,877054
,169913
,536561
,150866
,550509
,516748
,356495
,328806
,222860
,62585
,873942
,39004
,718813
,485424
,105331
,562409
,508023
,973418
,380638
,828533
,482250
,120339
,429268
,152135
,408098
,592591
,934225
,409839
,942243
,547359
,299800
,437600
,248858
,735787
,117817
,95972
,130390
,151981
,591196
,600240
,532745
,107889
,31253
,292193
,457918
,819219
,328187
,830622
,834323
,888644
,306408
,456772
,259371
,858008
,738866
,165398
,162352
,545599
,547213
,838796
,240781
,678331
,595389
,615022
,786945
,529377
,786122
,477725
,72520
,408746
,520270
,240173
,909729
,358860
,343203
,379155
,156033
,589334
,924489
,785511
,961537
,791707
,530258
,946842
,666788
,831868
,92092
,630709
,671731
,648477
,356057
,649587
,480905
,626291
,721941
,620862
,924526
,959826
,631963
,667639
,261839
,49512
,677951
,788520
,857086
,516501
,226692
,243032
,55231
,327794
,944395
,651819
,717015
,705231
,196321
,483968
,866763
,81859
,638658
,487984
,463664
,153470
,678151
,673169
,403175
,669970
,967815
,632737
,12161
,693086
,726825
,944237
,619289
,509354
,675761
,690409
,420501
,23211
,61138
,574129
,941521
,51545
,311726
,806647
,580878
,186767
,285708
,563596
,97181
,116324
,436799
,690476
,740128
,991242
,394185
,215297
,72726
,81818
,452551
,103360
,467350
,347417
,872025
,674858
,339767
,679223
,841196
,614873
,243049
,551973
,265736
,605693
,23078
,925123
,228741
,578
,804923
,777742
,36609
,828272
,498074
,590029
,596416
,511666
,86816
,189482
,469172
,561112
,236900
,200310
,123898
,329958
,364032
,350752
,913901
,605740
,505384
,950891
,229823
,232728
,86873
,226582
,739824
,593031
,707054
,452592
,900623
,877001
,107474
,162429
,839672
,596008
,93491
,148587
,658778
,501962
,994808
,43711
,699082
,143074
,740183
,68561
,414363
,26878
,451566
,813698
,897671
,980967
,79205
,943890
,375624
,135895
,241702
,738348
,784020
,5190
,959975
,620214
,986220
,819067
,503825
,690658
,765822
,483638
,931921
,309003
,557008
,416118
,259689
,812301
,196403
,339960
,937161
,602757
,20431
,281760
,574813
,318557
,245682
,410312
,620805
,495945
,710507
,228951
,343798
,397295
,357300
,902998
,700379
,804822
,170092
,562157
,340053
,637185
,178067
,293186
,801331
,756827
,471626
,224284
,816224
,452199
,35987
,729657
,346910
,179830
,8479
,176932
,768139
,545827
,929255
,774460
,351861
,514640
,57776
,46027
,11887
,495002
,509217
,329815
,779009
,292612
,274153
,343450
,709325
,476549
,422007
,766227
,347183
,250162
,741639
,781218
,267851
,21980
,481278
,311336
,95881
,111149
,717087
,315783
,854943
,913643
,980604
,572686
,631833
,758414
,673930
,664996
,872520
,970080
,235945
,833713
,668174
,586184
,426162
,927281
,238726
,163478
,497353
,281091
,885098
,983060
,295045
,979350
,305559
,266605
,446221
,531720
,500758
,371733
,274494
,717039
,328
,78922
,827225
,677354
,717672
,753451
,668362
,460797
,23836
,94790
,483231
,694149
,284792
,60137
,656572
,612560
,419766
,567168
,552596
,794581
,351399
,301349
,445402
,376668
,866228
,446253
,381250
,868904
,557749
,463377
,303756
,909546
,538854
,800348
,348789
,838300
,935671
,663758
,785454
,754760
,608532
,117903
,848598
,271391
,386004
,233757
,552146
,695890
,905247
,713589
,765008
,203506
,952964
,576127
,182140
,464638
,576668
,298790
,57021
,182009
,233497
,99343
,331598
,573284
,197836
,401323
,656639
,89183
,538490
,419848
,836043
,370192
,265268
,645921
,46835
,138133
,798460
,243554
,391100
,731661
,683857
,157370
,722531
,103208
,856991
,224471
,555119
,677116
,243753
,883302
,155786
,831730
,7384
,674794
,598303
,53920
,320305
,385384
,146221
,134107
,970694
,881608
,866991
,625264
,283336
,96343
,620754
,421863
,752301
,732400
,601075
,476649
,449324
,548866
,702829
,14269
,668019
,42942
,794851
,583945
,915517
,520514
,740750
,895969
,416446
,836254
,945739
,294640
,498201
,115804
,176485
,306479
,610960
,999535
,680042
,965035
,552589
,463433
,865470
,17393
,288155
,670303
,210837
,237144
,574298
,950076
,223016
,485673
,157793
,381553
,348470
,362795
,710928
,640694
,832314
,563403
,958170
,648394
,12
,0
,461454
,72891
,368764
,408533
,889337
,850226
,730759
,203374
,936878
,680418
,360752
,50444
,699742
,498452
,691509
,673665
,222120
,436404
,14140
,728206
,151759
,928404
,688475
,267902
,496761
,433385
,924766
,856142
,859510
,835827
,571909
,766562
,681710
,741601
,287919
,244546
,840394
,347955
,450988
,816902
,747080
,796151
,452893
,511187
,666679
,941564
,634032
,3509
,868014
,207958
,845652
,323495
,181029
,41798
,487172
,575518
,647523
,568077
,329287
,196616
,251748
,55590
,527559
,416513
,840264
,259685
,149584
,577085
,440322
,834468
,44391
,377925
,528753
,632457
,313924
,369304
,633681
,409785
,437346
,160237
,799834
,373935
,422182
,777286
,20850
,720659
,820027
,212050
,46561
,666653
,389772
,361712
,207281
,326358
,523866
,889794
,786596
,242083
,772280
,776880
,733630
,520611
,580279
,526578
,558336
,90621
,745050
,183703
,732340
,541753
,247426
,459891
,827339
,132886
,540214
,713091
,794583
,938711
,43021
,528240
,20721
,856746
,449364
,190849
,703454
,729694
,392630
,5899
,92730
,232278
,853277
,991994
,902958
,454545
,325815
,46506
,47155
,367458
,700453
,813739
,44200
,609369
,522861
,993531
,195657
,778296
,670238
,854673
,182699
,568511
,909940
,145802
,879986
,379597
,111478
,211357
,733144
,78533
,499334
,312095
,21145
,449388
,823402
,881253
,641063
,636869
,500289
,197851
,32454
,154467
,49585
,867020
,950251
,768080
,337253
,562856
,352506
,297058
,610887
,353134
,105191
,205380
,11731
,6782
,651166
,265221
,659941
,455631
,654137
,685292
,116131
,267562
,559278
,313909
,379168
,237418
,10247
,458606
,674299
,602144
,118864
,484154
,1551
,450294
,889664
,541275
,932792
,691979
,970819
,304567
,920294
,353747
,360314
,431249
,16381
,745139
,180929
,884540
,218822
,602267
,8928
,690437
,75291
,193512
,65179
,564866
,849068
,858598
,614703
,685372
,31812
,629987
,273988
,357057
,749770
,955348
,396559
,100891
,859866
,186799
,351699
,571948
,438093
,262520
,379246
,21524
,731970
,660416
,907602
,17007
,167151
,607409
,69221
,162355
,742103
,975653
,486081
,334832
,6323
,328248
,956869
,550994
,493245
,901605
,951473
,433633
,635871
,634705
,165685
,694864
,687948
,442677
,130045
,126657
,643088
,952954
,716146
,771134
,626519
,39555
,645292
,503277
,661678
,822819
,969813
,888543
,216114
,409137
,735240
,701619
,435541
,837065
,539144
,173253
,438073
,270358
,143117
,689664
,960129
,16030
,251949
,511600
,374499
,870409
,757091
,697840
,544295
,6098
,937729
,181430
,367339
,93008
,832870
,454312
,498433
,368288
,929839
,409828
,290103
,942059
,213688
,525870
,875754
,850033
,258156
,721539
,684129
,440881
,973569
,491479
,776027
,541349
,401394
,926839
,368564
,571930
,300624
,459233
,591392
,187665
,23335
,823910
,138460
,424121
,47931
,162243
,428398
,780759
,981214
,433035
,506902
,899487
,963412
,387847
,337574
,94932
,541319
,584794
,677235
,382176
,295179
,512168
,7030
,866955
,92065
,845103
,686960
,438412
,187443
,104490
,405710
,458388
,872177
,448248
,105874
,834954
,436807
,38204
,323947
,642932
,46783
,797959
,47453
,440644
,700767
,293486
,536297
,591536
,468393
,465239
,877617
,184000
,822341
,740039
,929793
,427877
,853905
,705940
,703993
,137013
,511310
,959648
,250634
,227688
,660294
,762425
,860217
,432073
,682815
,207072
,199237
,749181
,883917
,169229
,356935
,834225
,294436
,701678
,509850
,645228
,640534
,90151
,863854
,450736
,715921
,807882
,594550
,929083
,746293
,735302
,795897
,443381
,535967
,213760
,209588
,920068
,569129
,593693
,4971
,713752
,10682
,580032
,322280
,972072
,958746
,76734
,132213
,451849
,645105
,436037
,66104
,238903
,817698
,74154
,79821
,944522
,274381
,292680
,328526
,144428
,38213
,856367
,434832
,919796
,645052
,776500
,628549
,775391
,226551
,185467
,364201
,662425
,540329
,85945
,274965
,386399
,549133
,576114
,470883
,94010
,491634
,384616
,612158
,314086
,264433
,354832
,836376
,823874
,298740
,592552
,555722
,823501
,388272
,711357
,914729
,880218
,923077
,380299
,561333
,762352
,328370
,27138
,282178
,38588
,222737
,664945
,456263
,967228
,695633
,459242
,646702
,963760
,862855
,659352
,512590
,878470
,410444
,723819
,149063
,540820
,876985
,34931
,351476
,147164
,327191
,507472
,817247
,223725
,853977
,291490
,130279
,208087
,563036
,874678
,218293
,301976
,434451
,327455
,598107
,441359
,165243
,83021
,725436
,440404
,808203
,337338
,416317
,906727
,922624
,830109
,364590
,792101
,887580
,289887
,995490
,826054
,326609
,350421
,630905
,973634
,661419
,492766
,30248
,765544
,295570
,839815
,584132
,400468
,817335
,835670
,589435
,387879
,404108
,711099
,114289
,295360
,686577
,342063
,607468
,711043
,29549
,59839
,852621
,489757
,711095
,617240
,620427
,566090
,545759
,134601
,997015
,338861
,360893
,390154
,970609
,1544
,626965
,256848
,719502
,342609
,414125
,448669
,235789
,108773
,19189
,381944
,852644
,566988
,91392
,93820
,47945
,314874
,639137
,487573
,181684
,307882
,312985
,505814
,540494
,833498
,346891
,21873
,949367
,427133
,62087
,82191
,554806
,271124
,819484
,511407
,577416
,713877
,453043
,124536
,701180
,491178
,62391
,959445
,715888
,378862
,858341
,759517
,989599
,18555
,653177
,76969
,151874
,715572
,857333
,765222
,50888
,107978
,279569
,322195
,573693
,869211
,598708
,922199
,839558
,784735
,773777
,271916
,612961
,354158
,450366
,537579
,506970
,486229
,715672
,489336
,704045
,256851
,160534
,571784
,19290
,734022
,337832
,637654
,604681
,776208
,418972
,836306
,137672
,452213
,512842
,740368
]
}
